<mxfile host="app.diagrams.net" modified="2023-08-18T02:44:05.751Z" agent="Mozilla/5.0 (Windows NT 10.0; Win64; x64) AppleWebKit/537.36 (KHTML, like Gecko) Chrome/115.0.0.0 Safari/537.36" etag="CS328S27sqEg-fF0L3pd" version="21.6.8" type="gitlab">
  <diagram id="81iul9aL1cbb0TrZ_xjS" name="第 1 页">
    <mxGraphModel dx="1194" dy="760" grid="1" gridSize="10" guides="1" tooltips="1" connect="1" arrows="1" fold="1" page="1" pageScale="1" pageWidth="3000" pageHeight="3000" math="0" shadow="0">
      <root>
        <mxCell id="0" />
        <mxCell id="1" parent="0" />
        <mxCell id="4VY0KTSNak08GyTPiCiL-8" value="客户端" style="swimlane;" parent="1" vertex="1">
          <mxGeometry x="400" y="80" width="580" height="90" as="geometry" />
        </mxCell>
        <mxCell id="4VY0KTSNak08GyTPiCiL-9" value="google chrome&amp;nbsp;&lt;span style=&quot;color: rgb(95, 99, 104); font-family: Roboto, &amp;quot;Segoe UI&amp;quot;, Arial, &amp;quot;Microsoft Yahei&amp;quot;, sans-serif; font-size: 13px; text-align: start;&quot;&gt;版本 98.0.4758.81&lt;/span&gt;" style="rounded=0;whiteSpace=wrap;html=1;" parent="4VY0KTSNak08GyTPiCiL-8" vertex="1">
          <mxGeometry x="10" y="40" width="200" height="30" as="geometry" />
        </mxCell>
        <mxCell id="4VY0KTSNak08GyTPiCiL-10" value="微信公众号" style="rounded=0;whiteSpace=wrap;html=1;" parent="4VY0KTSNak08GyTPiCiL-8" vertex="1">
          <mxGeometry x="220" y="40" width="110" height="30" as="geometry" />
        </mxCell>
        <mxCell id="4VY0KTSNak08GyTPiCiL-11" value="Android" style="rounded=0;whiteSpace=wrap;html=1;" parent="4VY0KTSNak08GyTPiCiL-8" vertex="1">
          <mxGeometry x="340" y="40" width="110" height="30" as="geometry" />
        </mxCell>
        <mxCell id="4VY0KTSNak08GyTPiCiL-12" value="IOS" style="rounded=0;whiteSpace=wrap;html=1;" parent="4VY0KTSNak08GyTPiCiL-8" vertex="1">
          <mxGeometry x="460" y="40" width="110" height="30" as="geometry" />
        </mxCell>
        <mxCell id="4VY0KTSNak08GyTPiCiL-13" value="前端" style="swimlane;" parent="1" vertex="1">
          <mxGeometry x="400" y="240" width="580" height="250" as="geometry">
            <mxRectangle x="400" y="240" width="60" height="30" as="alternateBounds" />
          </mxGeometry>
        </mxCell>
        <mxCell id="4VY0KTSNak08GyTPiCiL-22" value="服务器" style="swimlane;" parent="4VY0KTSNak08GyTPiCiL-13" vertex="1">
          <mxGeometry y="23" width="150" height="225" as="geometry" />
        </mxCell>
        <mxCell id="4VY0KTSNak08GyTPiCiL-23" value="Rocky Linux 9.1（CentOS 的延续开发版本）" style="rounded=0;whiteSpace=wrap;html=1;" parent="4VY0KTSNak08GyTPiCiL-22" vertex="1">
          <mxGeometry y="23" width="150" height="35" as="geometry" />
        </mxCell>
        <mxCell id="4VY0KTSNak08GyTPiCiL-14" value="后台" style="swimlane;" parent="1" vertex="1">
          <mxGeometry x="400" y="530" width="580" height="263" as="geometry" />
        </mxCell>
        <mxCell id="4VY0KTSNak08GyTPiCiL-24" value="服务器" style="swimlane;" parent="4VY0KTSNak08GyTPiCiL-14" vertex="1">
          <mxGeometry y="23" width="150" height="237" as="geometry" />
        </mxCell>
        <mxCell id="4VY0KTSNak08GyTPiCiL-25" value="Rocky Linux 9.1（CentOS 的延续开发版本）" style="rounded=0;whiteSpace=wrap;html=1;" parent="4VY0KTSNak08GyTPiCiL-24" vertex="1">
          <mxGeometry y="23" width="150" height="35" as="geometry" />
        </mxCell>
        <mxCell id="4VY0KTSNak08GyTPiCiL-30" value="java虚拟机" style="swimlane;" parent="4VY0KTSNak08GyTPiCiL-14" vertex="1">
          <mxGeometry x="150" y="23" width="150" height="80" as="geometry">
            <mxRectangle x="150" y="23" width="100" height="30" as="alternateBounds" />
          </mxGeometry>
        </mxCell>
        <mxCell id="4VY0KTSNak08GyTPiCiL-32" value="Dragonwell 17（阿里对openJDK 17进行开发的分支）" style="rounded=0;whiteSpace=wrap;html=1;" parent="4VY0KTSNak08GyTPiCiL-30" vertex="1">
          <mxGeometry y="23" width="150" height="57" as="geometry" />
        </mxCell>
        <mxCell id="4VY0KTSNak08GyTPiCiL-38" value="消息中间件" style="swimlane;" parent="4VY0KTSNak08GyTPiCiL-14" vertex="1">
          <mxGeometry x="150" y="103" width="150" height="70" as="geometry">
            <mxRectangle x="150" y="23" width="100" height="30" as="alternateBounds" />
          </mxGeometry>
        </mxCell>
        <mxCell id="4VY0KTSNak08GyTPiCiL-39" value="RabbitMQ 3.11.5" style="rounded=0;whiteSpace=wrap;html=1;" parent="4VY0KTSNak08GyTPiCiL-38" vertex="1">
          <mxGeometry y="23" width="150" height="47" as="geometry" />
        </mxCell>
        <mxCell id="4VY0KTSNak08GyTPiCiL-40" value="集群缓存中间件" style="swimlane;" parent="4VY0KTSNak08GyTPiCiL-14" vertex="1">
          <mxGeometry x="150" y="173" width="150" height="77" as="geometry">
            <mxRectangle x="150" y="23" width="100" height="30" as="alternateBounds" />
          </mxGeometry>
        </mxCell>
        <mxCell id="4VY0KTSNak08GyTPiCiL-41" value="Redis 7.0.6" style="rounded=0;whiteSpace=wrap;html=1;" parent="4VY0KTSNak08GyTPiCiL-40" vertex="1">
          <mxGeometry y="23" width="150" height="57" as="geometry" />
        </mxCell>
        <mxCell id="4VY0KTSNak08GyTPiCiL-42" value="程序技术框架" style="swimlane;" parent="4VY0KTSNak08GyTPiCiL-14" vertex="1">
          <mxGeometry x="300" y="23" width="150" height="77" as="geometry">
            <mxRectangle x="150" y="23" width="100" height="30" as="alternateBounds" />
          </mxGeometry>
        </mxCell>
        <mxCell id="4VY0KTSNak08GyTPiCiL-43" value="spring&amp;nbsp;" style="rounded=0;whiteSpace=wrap;html=1;" parent="4VY0KTSNak08GyTPiCiL-42" vertex="1">
          <mxGeometry y="23" width="150" height="27" as="geometry" />
        </mxCell>
        <mxCell id="4VY0KTSNak08GyTPiCiL-15" value="数据库" style="swimlane;" parent="1" vertex="1">
          <mxGeometry x="400" y="830" width="580" height="250" as="geometry" />
        </mxCell>
        <mxCell id="4VY0KTSNak08GyTPiCiL-26" value="服务器" style="swimlane;" parent="4VY0KTSNak08GyTPiCiL-15" vertex="1">
          <mxGeometry y="23" width="150" height="225" as="geometry" />
        </mxCell>
        <mxCell id="4VY0KTSNak08GyTPiCiL-27" value="Rocky Linux 9.1（CentOS 的延续开发版本）" style="rounded=0;whiteSpace=wrap;html=1;" parent="4VY0KTSNak08GyTPiCiL-26" vertex="1">
          <mxGeometry y="23" width="150" height="35" as="geometry" />
        </mxCell>
        <mxCell id="4VY0KTSNak08GyTPiCiL-33" value="大数据集群中间件" style="swimlane;" parent="4VY0KTSNak08GyTPiCiL-15" vertex="1">
          <mxGeometry x="150" y="23" width="150" height="57" as="geometry">
            <mxRectangle x="150" y="23" width="100" height="30" as="alternateBounds" />
          </mxGeometry>
        </mxCell>
        <mxCell id="4VY0KTSNak08GyTPiCiL-34" value="mycat 2.0（阿里）" style="rounded=0;whiteSpace=wrap;html=1;" parent="4VY0KTSNak08GyTPiCiL-33" vertex="1">
          <mxGeometry y="23" width="150" height="35" as="geometry" />
        </mxCell>
        <mxCell id="4VY0KTSNak08GyTPiCiL-35" value="数据库" style="swimlane;" parent="4VY0KTSNak08GyTPiCiL-15" vertex="1">
          <mxGeometry x="150" y="81" width="150" height="80" as="geometry">
            <mxRectangle x="150" y="23" width="100" height="30" as="alternateBounds" />
          </mxGeometry>
        </mxCell>
        <mxCell id="4VY0KTSNak08GyTPiCiL-36" value="mariadb-10.10.2-linux-systemd-x86_64（mysql 8.0分支）" style="rounded=0;whiteSpace=wrap;html=1;" parent="4VY0KTSNak08GyTPiCiL-35" vertex="1">
          <mxGeometry y="23" width="150" height="57" as="geometry" />
        </mxCell>
        <mxCell id="4VY0KTSNak08GyTPiCiL-37" value="选型理由：&lt;br&gt;&lt;br&gt;Rocky Linux 9.1：是在CentOS宣布停止开发及维护后，原CentOS创始人为延续原CentOS项目初始目标新创建项目，与CentOS一脉相承，稳定可靠，开源免费，且社区活跃。&lt;br&gt;&lt;br&gt;Dragonwell 11：由阿里巴巴开发维护，是OpenJdk的分支，合并了11、17、19的特性，且进行了优化，拥有更卓越的性能，资源消耗更少，表现更稳定，且阿里巴巴集团全面使用，测试经受过双11高并发压力的考验。&lt;br&gt;&lt;br&gt;mariadb：mysql最重要的三大分支之一，为mysql被oracle控制并进行商业化后，原mysql创始人创建并成立基金会支撑mariadb的持续开发，不存在mariadb被商业化的风险，且性能、功能都领先与mysql原分支，并且几乎完全兼容mysql。&lt;br&gt;&lt;br&gt;mycat 2.0：由alibaba开源的大数据集群中间件，完全模拟mysql数据库，对原工程源码无入侵，对比shardingsphere高源码入侵，性能虽稍差一点，但是其开发代价和对技术人员的技术要求几乎可忽略。&lt;br&gt;&lt;br&gt;RabbitMQ&lt;span style=&quot;text-align: center;&quot;&gt;&amp;nbsp;3.11.5&lt;/span&gt;&lt;br&gt;：RabbitMQ对比同样流行的Kafka、RocketMQ具有优先级消息功能，对mqtt协议、websocket支持较为成熟，能支撑公司系统下一步功能规划的开发，且公司团队对RabbitMQ的技术储备较强，降低了开发难度。底层采用Erlang，Erlang是一种适用于大规模并行处理环境的高可靠性编程语言，主要用于开发并发和分布式系统，天生具备分布式的特点，所以RabbitMQ可以从编程层面轻松完成集群内节点数据同步这种分布式工作，这就意味着有了Erlang的支持，集群可以是无主的，省去了其他中间件要额外引入注册中心的问题。&lt;br&gt;&lt;br&gt;Redis 7.0.6：目前JAVA技术最主流、稳定的集群缓存技术中间件，也是团队熟悉的技术，从性能、功能、稳定性上对比，都强于其它相似产品，暂时没有其它强力竞争产品可供选择，集群缓存中间件不用对比了，就是它了。&lt;br&gt;&lt;br&gt;放弃的组件：&lt;br&gt;galera cluster：多主数据库集群，数据可靠性、实时性更强，数据库间数据同步无延时，但是资源损耗更大，但是对于我们公司的业务来说，只需要在那些需要可靠性实时数据的程序中开启事务，mycat2.0会默认事务中的查询和插入操做读库，这样就不会存在实时性问题，其它功能对数据的实时性要求不高。" style="whiteSpace=wrap;html=1;align=left;verticalAlign=top;" parent="1" vertex="1">
          <mxGeometry x="50" y="80" width="290" height="810" as="geometry" />
        </mxCell>
      </root>
    </mxGraphModel>
  </diagram>
</mxfile>
