<mxfile host="app.diagrams.net" modified="2023-10-19T01:17:22.840Z" agent="Mozilla/5.0 (Windows NT 10.0; Win64; x64) AppleWebKit/537.36 (KHTML, like Gecko) Chrome/115.0.0.0 Safari/537.36" version="22.0.4" etag="Ofa_QtNP7vxv8a2obwbA" type="gitlab">
  <diagram name="第 1 页" id="Lflj6dxhhX1vbzwKe9qc">
    <mxGraphModel>
      <root>
        <mxCell id="0" />
        <mxCell id="1" parent="0" />
      </root>
    </mxGraphModel>
  </diagram>
</mxfile>
